resampling
…
But it is computationally expensive (depending on number of repeats)

An example of Repeated K-fold Cross-validation

Splits with repeats = 10 (will do 10 different splits of 10-fold)

set.seed(19690127)
splits_kfold10x <- data_all |> 
  vfold_cv(v = 10, repeats = 10, strata = "disease")

splits_kfold10x

#  10-fold cross-validation repeated 10 times using stratification 
# A tibble: 100 × 3
   splits           id       id2   
   <list>           <chr>    <chr> 
 1 <split [272/31]> Repeat01 Fold01
 2 <split [272/31]> Repeat01 Fold02
 3 <split [272/31]> Repeat01 Fold03
 4 <split [272/31]> Repeat01 Fold04
 5 <split [273/30]> Repeat01 Fold05
 6 <split [273/30]> Repeat01 Fold06
 7 <split [273/30]> Repeat01 Fold07
 8 <split [273/30]> Repeat01 Fold08
 9 <split [273/30]> Repeat01 Fold09
10 <split [274/29]> Repeat01 Fold10
# … with 90 more rows
…
Again, all that changes is how you form the splits/resamples

You will use \(bootstraps()\) to form the splits

Here are 100 bootstraps stratified on disease

set.seed(19690127)
splits_boot <- data_all |> 
  bootstraps(times = 100, strata = "disease") 

splits_boot

# Bootstrap sampling using stratification 
# A tibble: 100 × 2
   splits            id          
   <list>            <chr>       
 1 <split [303/115]> Bootstrap001
 2 <split [303/123]> Bootstrap002
 3 <split [303/105]> Bootstrap003
 4 <split [303/115]> Bootstrap004
 5 <split [303/114]> Bootstrap005
 6 <split [303/115]> Bootstrap006
 7 <split [303/113]> Bootstrap007
 8 <split [303/95]>  Bootstrap008
 9 <split [303/101]> Bootstrap009
10 <split [303/115]> Bootstrap010
# … with 90 more rows
…
  },
  dir = "cache/",
  file = "fits_knn_boot",
  rerun = rerun_setting)

Reviewing performance of model configurations is similar to before but now with multiple configurations

We can see the average performance over folds along with its standard error using summarize = TRUE

We could see the performance of each configuration in EACH fold too, but there are lots of them (use summarize = FALSE)

collect_metrics(fits_knn_boot, summarize = TRUE)

# A tibble: 50 × 7
   neighbors .metric  .estimator  mean     n std_err .config              
       <dbl> <chr>    <chr>      <dbl> <int>   <dbl> <chr>                
 1         1 accuracy binary     0.749   100 0.00362 Preprocessor1_Model01
 2         4 accuracy binary     0.749   100 0.00362 Preprocessor1_Model02
 3         7 accuracy binary     0.771   100 0.00367 Preprocessor1_Model03
 4        10 accuracy binary     0.782   100 0.00353 Preprocessor1_Model04
 5        13 accuracy binary     0.787   100 0.00345 Preprocessor1_Model05
 6        16 accuracy binary     0.794   100 0.00329 Preprocessor1_Model06
 7        19 accuracy binary     0.798   100 0.00314 Preprocessor1_Model07
 8        22 accuracy binary     0.800   100 0.00313 Preprocessor1_Model08
 9        25 accuracy binary     0.802   100 0.00311 Preprocessor1_Model09
10        28 accuracy binary     0.803   100 0.00306 Preprocessor1_Model10
# … with 40 more rows
…
