Introduction to Applied Machine Learning - 11 Explanatory Approaches
…
Show Answer

Remember that the linear model is a special case of glmnet where the penalty = 0.  
Here we are looking log penalty down to exp(-8) = 0.0003354626.  That is pretty 
close to 0 so an approximation of how the standard logistic regression would 
perform.  glmnet is about 2% more accurate with its optimal hyperparameter values

Here are the optimal hyperparameter values for the top 10 configurations

collect_metrics(fits_full) |> 
  arrange(desc(mean)) |> 
  print(n = 10)

# A tibble: 2,700 × 8
   penalty mixture .metric  .estimator  mean     n std_err
     <dbl>   <dbl> <chr>    <chr>      <dbl> <int>   <dbl>
 1   0.279     0.1 accuracy binary     0.823   100 0.00277
 2   0.270     0.1 accuracy binary     0.823   100 0.00277
 3   0.261     0.1 accuracy binary     0.823   100 0.00273
 4   0.403     0.1 accuracy binary     0.823   100 0.00287
 5   0.476     0.1 accuracy binary     0.823   100 0.00288
 6   0.252     0.1 accuracy binary     0.823   100 0.00272
 7   0.509     0.1 accuracy binary     0.823   100 0.00281
 8   0.364     0.1 accuracy binary     0.823   100 0.00280
 9   0.228     0.1 accuracy binary     0.823   100 0.00278
10   0.389     0.1 accuracy binary     0.823   100 0.00283
   .config                
   <chr>                  
 1 Preprocessor1_Model1102
 2 Preprocessor1_Model1101
 3 Preprocessor1_Model1100
 4 Preprocessor1_Model1113
 5 Preprocessor1_Model1118
 6 Preprocessor1_Model1099
 7 Preprocessor1_Model1120
 8 Preprocessor1_Model1110
 9 Preprocessor1_Model1096
10 Preprocessor1_Model1112
# ℹ 2,690 more rows
…
Here are two ways to quantify model performance

How does the optimal model configuration perform in the full dataset

accuracy_vec(feat_full$disease, predict(fit_full, feat_full)$.pred_class)

[1] 0.8382838

And how does the optimal model configuration perform in held-out data

collect_metrics(fits_full) |> 
  arrange(desc(mean)) |> 
  print(n = 1)

# A tibble: 2,700 × 8
  penalty mixture .metric  .estimator  mean     n std_err
    <dbl>   <dbl> <chr>    <chr>      <dbl> <int>   <dbl>
1   0.279     0.1 accuracy binary     0.823   100 0.00277
  .config                
  <chr>                  
1 Preprocessor1_Model1102
# ℹ 2,699 more rows
…
collect_metrics(fits_compact) |> 
  arrange(desc(mean)) |> 
  print(n = 10)

# A tibble: 2,700 × 8
   penalty mixture .metric  .estimator  mean     n std_err
     <dbl>   <dbl> <chr>    <chr>      <dbl> <int>   <dbl>
 1  0.0362     1   accuracy binary     0.784   100 0.00318
 2  0.0277     1   accuracy binary     0.784   100 0.00299
 3  0.0350     1   accuracy binary     0.784   100 0.00318
 4  0.0598     0.4 accuracy binary     0.784   100 0.00303
 5  0.0339     1   accuracy binary     0.784   100 0.00310
 6  0.0296     1   accuracy binary     0.784   100 0.00310
 7  0.102      0.2 accuracy binary     0.784   100 0.00280
 8  0.0988     0.2 accuracy binary     0.784   100 0.00279
 9  0.0328     1   accuracy binary     0.784   100 0.00310
10  0.0579     0.4 accuracy binary     0.784   100 0.00299
   .config                
   <chr>                  
 1 Preprocessor1_Model2541
 2 Preprocessor1_Model2533
 3 Preprocessor1_Model2540
 4 Preprocessor1_Model1656
 5 Preprocessor1_Model2539
 6 Preprocessor1_Model2535
 7 Preprocessor1_Model1372
 8 Preprocessor1_Model1371
 9 Preprocessor1_Model2538
10 Preprocessor1_Model1655
# ℹ 2,690 more rows
…
Lets do this step by step. We will use the tidyposterior package. It in not included when we load tidymodels so we will load it now

library(tidyposterior)

We need to make a dataframe of our 100 performance estimates for the full and compact models. Here is the code to do this using our previous resamples of our models

Make dataframes of the accuracies from the full model and the compact model

accuracy_full <-
  collect_metrics(cv_full, summarize = FALSE) |>
  filter(.metric == "accuracy") |>
  select(id, id2, full = .estimate) |> 
  print()

# A tibble: 100 × 3
   id       id2     full
   <chr>    <chr>  <dbl>
 1 Repeat01 Fold01 0.871
 2 Repeat01 Fold02 0.806
 3 Repeat01 Fold03 0.871
 4 Repeat01 Fold04 0.839
 5 Repeat01 Fold05 0.933
 6 Repeat01 Fold06 0.733
 7 Repeat01 Fold07 0.9  
 8 Repeat01 Fold08 0.633
 9 Repeat01 Fold09 0.867
10 Repeat01 Fold10 0.759
# ℹ 90 more rows

accuracy_compact <-
     collect_metrics(cv_compact, summarize = FALSE) |>
     filter(.metric == "accuracy") |>
     select(id, id2, compact = .estimate)

Now we need to join these dataframes, matching on repeat and fold ids

resamples <- accuracy_full |> 
  full_join(accuracy_compact, by = c("id", "id2")) |> 
  print()

# A tibble: 100 × 4
   id       id2     full compact
   <chr>    <chr>  <dbl>   <dbl>
 1 Repeat01 Fold01 0.871   0.774
 2 Repeat01 Fold02 0.806   0.774
 3 Repeat01 Fold03 0.871   0.935
 4 Repeat01 Fold04 0.839   0.677
 5 Repeat01 Fold05 0.933   0.833
 6 Repeat01 Fold06 0.733   0.8  
 7 Repeat01 Fold07 0.9     0.8  
 8 Repeat01 Fold08 0.633   0.633
 9 Repeat01 Fold09 0.867   0.8  
10 Repeat01 Fold10 0.759   0.759
# ℹ 90 more rows
…
