Map across resamples – Introduction to Applied Machine Learning
…
getting bootstrap resamples of d. It has two columns and n_boots rows. Each row is a bootstrap sample of the data. The columns are:

splits - contains a bootstrap sample of the data that includes held-in raw data and OOB held-out raw data subsamples

id - name of the resample

Code

resamples <- bootstraps(d, times = n_boots)

resamples

# Bootstrap sampling 
# A tibble: 50 × 2
   splits            id         
   <list>            <chr>      
 1 <split [300/115]> Bootstrap01
 2 <split [300/108]> Bootstrap02
 3 <split [300/108]> Bootstrap03
 4 <split [300/107]> Bootstrap04
 5 <split [300/112]> Bootstrap05
 6 <split [300/102]> Bootstrap06
 7 <split [300/112]> Bootstrap07
 8 <split [300/114]> Bootstrap08
 9 <split [300/115]> Bootstrap09
10 <split [300/117]> Bootstrap10
# ℹ 40 more rows
…
resamples_tidy_ex1 |> 
  collect_metrics()

# A tibble: 1 × 6
  .metric .estimator  mean     n std_err .config             
  <chr>   <chr>      <dbl> <int>   <dbl> <chr>               
1 rmse    standard   0.997    50 0.00788 Preprocessor1_Model1

Code

resamples_tidy_ex1 |> 
  collect_metrics(summarize = FALSE)

# A tibble: 50 × 5
   id          .metric .estimator .estimate .config             
   <chr>       <chr>   <chr>          <dbl> <chr>               
 1 Bootstrap01 rmse    standard       0.983 Preprocessor1_Model1
 2 Bootstrap02 rmse    standard       0.938 Preprocessor1_Model1
 3 Bootstrap03 rmse    standard       1.01  Preprocessor1_Model1
 4 Bootstrap04 rmse    standard       0.993 Preprocessor1_Model1
 5 Bootstrap05 rmse    standard       0.985 Preprocessor1_Model1
 6 Bootstrap06 rmse    standard       0.947 Preprocessor1_Model1
 7 Bootstrap07 rmse    standard       1.00  Preprocessor1_Model1
 8 Bootstrap08 rmse    standard       1.06  Preprocessor1_Model1
 9 Bootstrap09 rmse    standard       1.05  Preprocessor1_Model1
10 Bootstrap10 rmse    standard       0.981 Preprocessor1_Model1
# ℹ 40 more rows
…
Now map this function over the splits to get a vector of rmse. Same results, but not saving intermediate steps by using one function.

Code

resamples_ex2 <- resamples |> 
  mutate(errors = map_dbl(splits, \(split) fit_and_eval(split, rec)))

Here is what the resamples_ex2 tibble now looks like and summary stats on the resampled rmse

Code

resamples_ex2

# Bootstrap sampling 
# A tibble: 50 × 3
   splits            id          errors
   <list>            <chr>        <dbl>
 1 <split [300/115]> Bootstrap01  0.983
 2 <split [300/108]> Bootstrap02  0.938
 3 <split [300/108]> Bootstrap03  1.01 
 4 <split [300/107]> Bootstrap04  0.993
 5 <split [300/112]> Bootstrap05  0.985
 6 <split [300/102]> Bootstrap06  0.947
 7 <split [300/112]> Bootstrap07  1.00 
 8 <split [300/114]> Bootstrap08  1.06 
 9 <split [300/115]> Bootstrap09  1.05 
10 <split [300/117]> Bootstrap10  0.981
# ℹ 40 more rows
…
Code

grid_k = c(2, 4, 8, 16)
resamples_ex3 <- resamples |> 
  mutate(rmses = map(splits, 
              \(split) eval_grid(split, rec, grid_k)))

The rmses column contains the rmse for each value of k for each split/resample in a tibble. Each tibble has 4 rows (one for each k) and 2 columns (k and rmse).

Code

resamples_ex3

# Bootstrap sampling 
# A tibble: 50 × 3
   splits            id          rmses           
   <list>            <chr>       <list>          
 1 <split [300/115]> Bootstrap01 <tibble [4 × 2]>
 2 <split [300/108]> Bootstrap02 <tibble [4 × 2]>
 3 <split [300/108]> Bootstrap03 <tibble [4 × 2]>
 4 <split [300/107]> Bootstrap04 <tibble [4 × 2]>
 5 <split [300/112]> Bootstrap05 <tibble [4 × 2]>
 6 <split [300/102]> Bootstrap06 <tibble [4 × 2]>
 7 <split [300/112]> Bootstrap07 <tibble [4 × 2]>
 8 <split [300/114]> Bootstrap08 <tibble [4 × 2]>
 9 <split [300/115]> Bootstrap09 <tibble [4 × 2]>
10 <split [300/117]> Bootstrap10 <tibble [4 × 2]>
# ℹ 40 more rows

We can unnest() the rmses column to get a tibble with one row for each lambda value in each resample. No need to see the original splits column so we will select it out. For example.

Code

resamples_ex3 |> 
  unnest(rmses) |> 
  select(-splits) |>
  print(n = 30)

# A tibble: 200 × 3
   id              k  rmse
   <chr>       <dbl> <dbl>
 1 Bootstrap01     2  1.54
 2 Bootstrap01     4  1.49
 3 Bootstrap01     8  1.46
 4 Bootstrap01    16  1.58
 5 Bootstrap02     2  1.38
 6 Bootstrap02     4  1.27
 7 Bootstrap02     8  1.25
 8 Bootstrap02    16  1.29
 9 Bootstrap03     2  1.50
10 Bootstrap03     4  1.47
11 Bootstrap03     8  1.48
12 Bootstrap03    16  1.52
13 Bootstrap04     2  1.44
14 Bootstrap04     4  1.39
15 Bootstrap04     8  1.32
16 Bootstrap04    16  1.36
17 Bootstrap05     2  1.60
18 Bootstrap05     4  1.47
19 Bootstrap05     8  1.41
20 Bootstrap05    16  1.44
21 Bootstrap06     2  1.33
22 Bootstrap06     4  1.32
23 Bootstrap06     8  1.42
24 Bootstrap06    16  1.53
25 Bootstrap07     2  1.35
26 Bootstrap07     4  1.33
27 Bootstrap07     8  1.34
28 Bootstrap07    16  1.35
29 Bootstrap08     2  1.39
30 Bootstrap08     4  1.32
# ℹ 170 more rows
…
# A tibble: 4 × 7
  neighbors .metric .estimator  mean     n std_err .config             
      <dbl> <chr>   <chr>      <dbl> <int>   <dbl> <chr>               
1         8 rmse    standard    1.34    50  0.0178 Preprocessor1_Model3
2        16 rmse    standard    1.37    50  0.0219 Preprocessor1_Model4
3         4 rmse    standard    1.39    50  0.0160 Preprocessor1_Model2
4         2 rmse    standard    1.48    50  0.0161 Preprocessor1_Model1

Code

resamples_tidy_ex3 |> 
  collect_metrics(summarize = FALSE)

# A tibble: 200 × 6
   id          neighbors .metric .estimator .estimate .config             
   <chr>           <dbl> <chr>   <chr>          <dbl> <chr>               
 1 Bootstrap01         2 rmse    standard        1.54 Preprocessor1_Model1
 2 Bootstrap02         2 rmse    standard        1.38 Preprocessor1_Model1
 3 Bootstrap03         2 rmse    standard        1.50 Preprocessor1_Model1
 4 Bootstrap04         2 rmse    standard        1.44 Preprocessor1_Model1
 5 Bootstrap05         2 rmse    standard        1.60 Preprocessor1_Model1
 6 Bootstrap06         2 rmse    standard        1.33 Preprocessor1_Model1
 7 Bootstrap07         2 rmse    standard        1.35 Preprocessor1_Model1
 8 Bootstrap08         2 rmse    standard        1.39 Preprocessor1_Model1
 9 Bootstrap09         2 rmse    standard        1.43 Preprocessor1_Model1
10 Bootstrap10         2 rmse    standard        1.54 Preprocessor1_Model1
# ℹ 190 more rows
…
