8 Advanced Performance Metrics – Introduction to Applied Machine Learning
…
Higher threshold increases specificity but decreases sensitivity

It is relatively easy to make a new confusion matrix and get new performance metrics with a different classification threshold

Make a tibble with truth and predicted probabilities

Code

preds <- tibble(truth = feat_test$disease,
                prob = predict(fit_glmnet, feat_test, type = "prob")$.pred_yes)

preds

# A tibble: 428 × 2
   truth    prob
   <fct>   <dbl>
 1 no    0.0160 
 2 no    0.117  
 3 no    0.0200 
 4 no    0.00231
 5 no    0.00984
 6 no    0.00143
 7 no    0.00507
 8 no    0.0421 
 9 no    0.00773
10 no    0.103  
# ℹ 418 more rows

Use this to get class estimates at any threshold we want

Here we threshold at 20%

Code

preds <- preds |> 
  mutate(estimate_20 = if_else(prob <= .20, "no", "yes"),
         estimate_20 = factor(estimate_20, levels = c("yes", "no"))) |> 
  print()

# A tibble: 428 × 3
   truth    prob estimate_20
   <fct>   <dbl> <fct>      
 1 no    0.0160  no         
 2 no    0.117   no         
 3 no    0.0200  no         
 4 no    0.00231 no         
 5 no    0.00984 no         
 6 no    0.00143 no         
 7 no    0.00507 no         
 8 no    0.0421  no         
 9 no    0.00773 no         
10 no    0.103   no         
# ℹ 418 more rows
…
We need to specify the positive class

Returns tibble with data to plot an ROC curve

Code

roc_plot <- 
  tibble(truth = feat_test$disease,
         prob = predict(fit_glmnet, feat_test, type = "prob")$.pred_yes) |> 
  roc_curve(prob, truth = truth)

roc_plot

# A tibble: 202 × 3
    .threshold specificity sensitivity
         <dbl>       <dbl>       <dbl>
 1 -Inf            0                 1
 2    0.000591     0                 1
 3    0.000719     0.00787           1
 4    0.000897     0.0131            1
 5    0.00143      0.0210            1
 6    0.00194      0.0262            1
 7    0.00202      0.0315            1
 8    0.00205      0.0341            1
 9    0.00218      0.0394            1
10    0.00229      0.0446            1
# ℹ 192 more rows
…
