Introduction to Applied Machine Learning - 9 Advanced Models: Decision Trees, Bagging Trees, and Random Forest
…
Minimal Node Size (quantitative)
Range: [2, 40]

We can use these function with dials::grid_regular() to get a tuning grid

With levels = 4 we get 64 combinations of values (4 x 4 x 4)

Code

grid_tree <- grid_regular(cost_complexity(), tree_depth(), min_n(), levels = 4)

grid_tree

# A tibble: 64 × 3
   cost_complexity tree_depth min_n
             <dbl>      <int> <int>
 1    0.0000000001          1     2
 2    0.0000001             1     2
 3    0.0001                1     2
 4    0.1                   1     2
 5    0.0000000001          5     2
 6    0.0000001             5     2
 7    0.0001                5     2
 8    0.1                   5     2
 9    0.0000000001         10     2
10    0.0000001            10     2
# ℹ 54 more rows
…
Switching to expand_grid() to manually select

Code

grid_tree_bagged <- expand_grid(cost_complexity = c(10^-10, 10^-7, 10^-04, 10^-01), 
                                tree_depth = c(10, 15, 20, 30), 
                                min_n = c(2, 14, 27, 40))

grid_tree_bagged

# A tibble: 64 × 3
   cost_complexity tree_depth min_n
             <dbl>      <dbl> <dbl>
 1    0.0000000001         10     2
 2    0.0000000001         10    14
 3    0.0000000001         10    27
 4    0.0000000001         10    40
 5    0.0000000001         15     2
 6    0.0000000001         15    14
 7    0.0000000001         15    27
 8    0.0000000001         15    40
 9    0.0000000001         20     2
10    0.0000000001         20    14
# ℹ 54 more rows
…
