11 Explanatory Approaches – Introduction to Applied Machine Learning
…
Here we are looking log penalty down to exp(-8) = 0.0003354626. That is pretty close to 0 so an approximation of how the standard logistic regression would perform. glmnet is slightly more accurate with its optimal hyperparameter values

Here we show the mean performance of the top 10 configurations

We use these performance estimates to select the top optimal values for the hyperparameters

We will choose the hyperparameter values from the configuration displayed in the first row of this table

Code

collect_metrics(fits_full) |> 
  arrange(desc(mean)) |> 
  print(n = 10)

# A tibble: 2,700 × 8
   penalty mixture .metric  .estimator  mean     n std_err
     <dbl>   <dbl> <chr>    <chr>      <dbl> <int>   <dbl>
 1   0.929   0.05  accuracy binary     0.829   100 0.00610
 2   1.17    0.025 accuracy binary     0.829   100 0.00607
 3   0.509   0.1   accuracy binary     0.828   100 0.00618
 4   0.544   0.1   accuracy binary     0.828   100 0.00614
 5   0.622   0.1   accuracy binary     0.828   100 0.00618
 6   0.665   0.1   accuracy binary     0.828   100 0.00615
 7   0.526   0.1   accuracy binary     0.828   100 0.00611
 8   0.688   0.1   accuracy binary     0.828   100 0.00623
 9   0.869   0.05  accuracy binary     0.828   100 0.00623
10   1.03    0.025 accuracy binary     0.828   100 0.00601
   .config                
   <chr>                  
 1 Preprocessor1_Model0838
 2 Preprocessor1_Model0545
 3 Preprocessor1_Model1120
 4 Preprocessor1_Model1122
 5 Preprocessor1_Model1126
 6 Preprocessor1_Model1128
 7 Preprocessor1_Model1121
 8 Preprocessor1_Model1129
 9 Preprocessor1_Model0836
10 Preprocessor1_Model0541
# ℹ 2,690 more rows
…
library(tidyposterior)

We need to make a dataframe of our 100 performance estimates for the full and compact models. Here is the code to do this using our previous resamples of our models

Make dataframes of the accuracies from the full model and the compact model

Code

accuracy_full <- collect_metrics(fits_full, summarize = FALSE) |> 
  filter(.config == hp_best_full$.config) |>   # as before - the best config
  select(id, id2, full = .estimate) |> 
  print()

# A tibble: 100 × 3
   id       id2     full
   <chr>    <chr>  <dbl>
 1 Repeat01 Fold01 0.839
 2 Repeat01 Fold02 0.903
 3 Repeat01 Fold03 0.839
 4 Repeat01 Fold04 0.871
 5 Repeat01 Fold05 0.8  
 6 Repeat01 Fold06 0.733
 7 Repeat01 Fold07 0.867
 8 Repeat01 Fold08 0.733
 9 Repeat01 Fold09 0.867
10 Repeat01 Fold10 0.828
# ℹ 90 more rows

Code

accuracy_compact <- collect_metrics(fits_compact, summarize = FALSE) |> 
  filter(.config == hp_best_compact$.config) |>   # as before - the best config
  select(id, id2, compact = .estimate) |> 
  print()

# A tibble: 100 × 3
   id       id2    compact
   <chr>    <chr>    <dbl>
 1 Repeat01 Fold01   0.774
 2 Repeat01 Fold02   0.806
 3 Repeat01 Fold03   0.774
 4 Repeat01 Fold04   0.806
 5 Repeat01 Fold05   0.867
 6 Repeat01 Fold06   0.7  
 7 Repeat01 Fold07   0.733
 8 Repeat01 Fold08   0.9  
 9 Repeat01 Fold09   0.7  
10 Repeat01 Fold10   0.759
# ℹ 90 more rows

Now we need to join these dataframes, matching on repeat and fold ids

Code

resamples <- accuracy_full |> 
  full_join(accuracy_compact, by = c("id", "id2")) |> 
  print()

# A tibble: 100 × 4
   id       id2     full compact
   <chr>    <chr>  <dbl>   <dbl>
 1 Repeat01 Fold01 0.839   0.774
 2 Repeat01 Fold02 0.903   0.806
 3 Repeat01 Fold03 0.839   0.774
 4 Repeat01 Fold04 0.871   0.806
 5 Repeat01 Fold05 0.8     0.867
 6 Repeat01 Fold06 0.733   0.7  
 7 Repeat01 Fold07 0.867   0.733
 8 Repeat01 Fold08 0.733   0.9  
 9 Repeat01 Fold09 0.867   0.7  
10 Repeat01 Fold10 0.828   0.759
# ℹ 90 more rows
…
