12 Natural Language Processing: Text Processing and Feature Engineering – Introduction to Applied Machine Learning
…
Those lists are also available with get_stopwords() in the tidytext package (my preference)

get_stopwords() returns a tibble with two columns (see below)

Two commonly used stop word lists are:

snowball (175 words)

Code

stop_snowball <- 
  get_stopwords(source = "snowball") |> 
  print(n = 50)  # review the first 50 words

# A tibble: 175 × 2
   word       lexicon 
   <chr>      <chr>   
 1 i          snowball
 2 me         snowball
 3 my         snowball
 4 myself     snowball
 5 we         snowball
 6 our        snowball
 7 ours       snowball
 8 ourselves  snowball
 9 you        snowball
10 your       snowball
11 yours      snowball
12 yourself   snowball
13 yourselves snowball
14 he         snowball
15 him        snowball
16 his        snowball
17 himself    snowball
18 she        snowball
19 her        snowball
20 hers       snowball
21 herself    snowball
22 it         snowball
23 its        snowball
24 itself     snowball
25 they       snowball
26 them       snowball
27 their      snowball
28 theirs     snowball
29 themselves snowball
30 what       snowball
31 which      snowball
32 who        snowball
33 whom       snowball
34 this       snowball
35 that       snowball
36 these      snowball
37 those      snowball
38 am         snowball
39 is         snowball
40 are        snowball
41 was        snowball
42 were       snowball
43 be         snowball
44 been       snowball
45 being      snowball
46 have       snowball
47 has        snowball
48 had        snowball
49 having     snowball
50 do         snowball
# ℹ 125 more rows

smart (571 words)

Code

stop_smart <-
  get_stopwords(source = "smart") |> 
  print(n = 50)  # review the first 50 words

# A tibble: 571 × 2
   word        lexicon
   <chr>       <chr>  
 1 a           smart  
 2 a's         smart  
 3 able        smart  
 4 about       smart  
 5 above       smart  
 6 according   smart  
 7 accordingly smart  
 8 across      smart  
 9 actually    smart  
10 after       smart  
11 afterwards  smart  
12 again       smart  
13 against     smart  
14 ain't       smart  
15 all         smart  
16 allow       smart  
17 allows      smart  
18 almost      smart  
19 alone       smart  
20 along       smart  
21 already     smart  
22 also        smart  
23 although    smart  
24 always      smart  
25 am          smart  
26 among       smart  
27 amongst     smart  
28 an          smart  
29 and         smart  
30 another     smart  
31 any         smart  
32 anybody     smart  
33 anyhow      smart  
34 anyone      smart  
35 anything    smart  
36 anyway      smart  
37 anyways     smart  
38 anywhere    smart  
39 apart       smart  
40 appear      smart  
41 appreciate  smart  
42 appropriate smart  
43 are         smart  
44 aren't      smart  
45 around      smart  
46 as          smart  
47 aside       smart  
48 ask         smart  
49 asking      smart  
50 associated  smart  
# ℹ 521 more rows
…
stem_tokens <-
  tokens |> 
  tab(stem) |> 
  arrange(desc(n)) |> 
  slice(1:100) |> 
  select(stem, n_stem = n)

word_tokens |> 
  bind_cols(stem_tokens)

# A tibble: 100 × 4
   word   n_word stem    n_stem
   <chr>   <int> <chr>    <int>
 1 movie   43510 movi     51160
 2 film    39058 film     47096
 3 good    15111 time     16146
 4 time    12691 good     15328
 5 story   11920 make     15204
 6 bad      9292 watch    13920
 7 people   9107 charact  13844
 8 great    9034 stori    13105
 9 made     8351 scene    10563
10 make     8018 show      9750
# ℹ 90 more rows
…
