Introduction to Applied Machine Learning - 3 Introduction to Regression Models
…
213000.0

556581

1.42

2.97

Now we can get predictions using our model with validation features

predict() returns a dataframe with one column named .pred and one row for every observation in dataframe (e.g., validation feature set)

predict(fit_lm_1, feat_val)

# A tibble: 490 × 1
     .pred
     <dbl>
 1 196944.
 2 194003.
 3 213065.
 4 162632.
 5 180169.
 6 207401.
 7 218729.
 8 125923.
 9 135509.
10 133004.
# ℹ 480 more rows
…
